<svg width="1077" height="952" viewBox="0 0 1077 952" fill="none" xmlns="http://www.w3.org/2000/svg" xmlns:xlink="http://www.w3.org/1999/xlink">
<path d="M8.70005 951.454C6.99694 951.791 5.62952 951.587 4.59779 950.842C3.61488 950.025 3.0709 948.711 2.96586 946.899L0.931034 890.992C0.744214 887.806 2.23226 885.9 5.39518 885.276L26.015 881.204C32.8882 879.846 38.1826 880.254 41.898 882.428C45.6743 884.589 48.0069 887.92 48.8958 892.421C49.7246 896.618 49.2351 900.381 47.4275 903.708C45.6807 907.023 42.9082 909.624 39.1099 911.512C42.4162 911.933 45.1551 913.162 47.3267 915.198C49.5591 917.222 50.9996 919.876 51.6482 923.161C52.8854 929.426 51.8151 934.566 48.4373 938.583C45.0594 942.599 39.721 945.328 32.4219 946.77L8.70005 951.454ZM10.9446 913.377L28.0061 910.008C32.4463 909.131 35.7092 907.412 37.7946 904.852C39.9409 902.279 40.6356 899.077 39.8789 895.245C39.3144 892.386 37.9087 890.389 35.662 889.252C33.4153 888.116 30.2239 887.956 26.0878 888.773L10.1212 891.926L10.9446 913.377ZM12.003 943.218L30.7068 939.525C35.3904 938.6 38.714 936.869 40.6778 934.333C42.6296 931.735 43.2151 928.46 42.4343 924.506C41.8217 921.404 40.2948 919.272 37.8537 918.111C35.4733 916.938 32.3367 916.736 28.4439 917.505L11.1999 920.91L12.003 943.218Z" fill="white"/>
<path d="M70.1965 939.974C68.7367 940.262 67.5458 939.992 66.6237 939.162C65.7624 938.321 65.3097 936.989 65.2655 935.165L63.1406 878.802C63.0026 875.543 64.515 873.601 67.6779 872.976L86.8379 869.193C93.8328 867.811 99.4369 868.348 103.65 870.802C107.852 873.195 110.487 877.099 111.556 882.512C112.685 888.23 111.931 893.055 109.295 896.988C106.708 900.849 102.883 903.721 97.8206 905.606C99.4613 905.914 100.937 906.665 102.247 907.86C103.606 908.982 104.879 910.468 106.066 912.319L113.97 924.978C115.084 926.78 115.415 928.295 114.962 929.522C114.558 930.676 113.383 931.445 111.436 931.83C110.159 932.082 109.065 931.982 108.154 931.53C107.292 931.005 106.443 930.067 105.607 928.715L96.1779 913.609C94.7122 911.307 93.1534 909.814 91.5014 909.129C89.8374 908.383 87.6368 908.28 84.8997 908.821L73.7686 911.019L74.7519 934.239C74.8171 937.45 73.2986 939.361 70.1965 939.974ZM73.5493 903.668L90.5196 900.317C95.0815 899.416 98.3992 897.655 100.473 895.034C102.595 892.339 103.266 889.015 102.485 885.062C101.788 881.534 100.201 879.098 97.724 877.755C95.2347 876.35 91.7092 876.099 87.1473 877L72.6404 879.864L73.5493 903.668Z" fill="white"/>
<path d="M132.729 926.961C129.018 927.694 127.077 926.182 126.903 922.424L124.869 866.517C124.682 863.331 126.17 861.425 129.333 860.801L162.361 854.278C165.037 853.75 166.574 854.489 166.97 856.496C167.27 858.017 167.073 859.257 166.377 860.216C165.743 861.163 164.756 861.768 163.418 862.032L134.039 867.834L134.828 888.628L161.561 883.349C164.176 882.833 165.688 883.608 166.097 885.677C166.385 887.136 166.181 888.346 165.486 889.305C164.851 890.251 163.865 890.857 162.527 891.121L135.155 896.526L135.868 918.378L164.517 912.721C167.193 912.192 168.736 912.962 169.144 915.03C169.433 916.49 169.229 917.699 168.534 918.658C167.899 919.605 166.913 920.211 165.574 920.475L132.729 926.961Z" fill="white"/>
<path d="M203.427 913.853C199.413 914.646 195.369 914.97 191.296 914.827C187.284 914.671 183.522 913.866 180.012 912.41C178.712 911.908 177.832 911.134 177.373 910.087C176.974 909.029 176.928 907.995 177.235 906.986C177.529 905.917 178.127 905.104 179.028 904.547C179.99 903.978 181.188 903.962 182.621 904.501C185.84 905.761 189.134 906.438 192.502 906.531C195.869 906.624 199.257 906.335 202.663 905.662C207.225 904.761 210.694 903.128 213.071 900.763C215.496 898.325 216.397 895.524 215.772 892.361C215.328 890.111 214.134 888.387 212.192 887.191C210.237 885.934 207.163 885.245 202.968 885.126L192.828 884.663C188.305 884.482 184.484 883.373 181.364 881.334C178.293 879.223 176.307 875.887 175.406 871.325C174.601 867.25 175.036 863.53 176.71 860.166C178.372 856.741 180.902 853.872 184.3 851.557C187.759 849.231 191.739 847.624 196.24 846.735C199.646 846.062 203.27 845.852 207.112 846.105C211.014 846.345 214.605 847.247 217.884 848.812C219.074 849.398 219.869 850.221 220.268 851.28C220.715 852.266 220.786 853.263 220.479 854.272C220.173 855.28 219.532 856.038 218.559 856.547C217.573 856.994 216.26 856.906 214.62 856.282C212.057 855.145 209.274 854.494 206.271 854.328C203.317 854.09 200.441 854.247 197.643 854.8C193.263 855.665 189.842 857.383 187.38 859.955C184.918 862.527 184.011 865.455 184.659 868.739C185.2 871.476 186.338 873.4 188.074 874.511C189.798 875.561 192.156 876.138 195.147 876.243L205.286 876.705C211.135 876.877 215.667 878.068 218.884 880.276C222.162 882.473 224.185 885.518 224.954 889.41C225.794 893.668 225.347 897.485 223.613 900.861C221.866 904.176 219.19 906.948 215.586 909.177C212.042 911.393 207.989 912.952 203.427 913.853Z" fill="white"/>
<path d="M255.983 903.285C254.462 903.585 253.241 903.321 252.319 902.492C251.457 901.651 250.98 900.354 250.887 898.603L248.827 845.45L230.306 849.108C227.447 849.672 225.802 848.86 225.369 846.67C225.081 845.21 225.285 844.001 225.98 843.042C226.663 842.022 227.735 841.368 229.195 841.08L276.547 831.729C279.406 831.164 281.046 831.947 281.466 834.075C281.766 835.596 281.575 836.866 280.891 837.886C280.196 838.845 279.118 839.468 277.659 839.757L258.316 843.576L260.356 897.587C260.421 900.797 258.963 902.696 255.983 903.285Z" fill="white"/>
<path d="M288.96 874.685C286.283 875.214 284.747 874.474 284.351 872.467C284.111 871.25 284.241 870.15 284.742 869.167C285.304 868.171 286.253 867.541 287.592 867.277L307.208 863.403C309.884 862.874 311.42 863.614 311.817 865.621C312.057 866.838 311.896 867.944 311.335 868.939C310.773 869.935 309.823 870.565 308.485 870.829L288.96 874.685Z" fill="white"/>
<path d="M330.85 888.216C327.809 888.816 326.213 887.457 326.063 884.137L323.852 825.895C323.749 823.134 325.036 821.49 327.712 820.961C328.928 820.721 329.925 820.809 330.702 821.224C331.468 821.579 332.22 822.346 332.958 823.528L356.63 862.27L377.703 813.933C378.62 811.856 380.174 810.601 382.363 810.169C383.762 809.893 384.85 810.12 385.627 810.852C386.452 811.51 386.923 812.618 387.041 814.175L389.161 872.435C389.276 875.256 388.026 876.925 385.41 877.441C384.011 877.717 382.863 877.502 381.965 876.794C381.127 876.075 380.68 874.931 380.623 873.362L378.943 829.33L361.189 869.996C360.798 870.895 360.334 871.587 359.798 872.072C359.322 872.545 358.659 872.865 357.807 873.033C355.922 873.406 354.452 872.685 353.399 870.871L332.923 838.228L334.601 883.209C334.716 886.03 333.465 887.699 330.85 888.216Z" fill="white"/>
<path d="M434.979 868.126C429.444 869.219 424.398 869.11 419.842 867.798C415.334 866.413 411.516 863.881 408.388 860.201C405.321 856.509 403.198 851.683 402.021 845.722C400.58 838.423 400.602 831.657 402.089 825.422C403.563 819.128 406.439 813.851 410.718 809.594C415.045 805.263 420.675 802.414 427.609 801.044C433.205 799.939 438.257 800.079 442.765 801.464C447.321 802.776 451.133 805.278 454.2 808.97C457.268 812.661 459.384 817.457 460.549 823.357C462.003 830.717 461.992 837.545 460.518 843.839C459.031 850.074 456.125 855.356 451.798 859.686C447.519 863.944 441.913 866.757 434.979 868.126ZM433.54 859.879C438.467 858.906 442.381 856.806 445.283 853.579C448.233 850.278 450.146 846.204 451.021 841.354C451.896 836.505 451.769 831.221 450.64 825.504C449.319 818.813 446.759 814.168 442.959 811.569C439.16 808.97 434.492 808.217 428.957 809.31C424.03 810.283 420.116 812.383 417.214 815.61C414.312 818.837 412.424 822.876 411.549 827.725C410.674 832.575 410.801 837.858 411.93 843.576C413.251 850.267 415.787 854.948 419.538 857.62C423.338 860.219 428.005 860.972 433.54 859.879Z" fill="white"/>
<path d="M480.233 859C478.773 859.288 477.582 859.018 476.66 858.189C475.799 857.348 475.346 856.015 475.302 854.191L473.177 797.828C473.039 794.569 474.551 792.627 477.714 792.003L496.874 788.219C503.869 786.838 509.473 787.374 513.686 789.828C517.888 792.222 520.523 796.125 521.592 801.539C522.721 807.256 521.968 812.082 519.332 816.015C516.745 819.875 512.92 822.748 507.857 824.632C509.498 824.94 510.973 825.692 512.283 826.886C513.642 828.008 514.916 829.495 516.103 831.346L524.006 844.005C525.12 845.807 525.451 847.321 524.998 848.548C524.594 849.703 523.419 850.472 521.472 850.856C520.195 851.109 519.101 851.009 518.19 850.556C517.328 850.032 516.479 849.093 515.643 847.742L506.214 832.635C504.748 830.333 503.19 828.84 501.538 828.155C499.874 827.409 497.673 827.307 494.936 827.847L483.805 830.046L484.788 853.266C484.853 856.476 483.335 858.388 480.233 859ZM483.586 822.695L500.556 819.344C505.118 818.443 508.435 816.681 510.509 814.06C512.631 811.366 513.302 808.042 512.521 804.088C511.824 800.561 510.237 798.125 507.76 796.781C505.271 795.377 501.745 795.125 497.184 796.026L482.677 798.891L483.586 822.695Z" fill="white"/>
<path d="M542.4 846.06C540.758 846.384 539.451 846.168 538.48 845.412C537.57 844.644 537.075 843.415 536.994 841.724L534.889 784.504C534.75 781.561 536.141 779.801 539.06 779.225C540.642 778.912 541.888 779.14 542.798 779.909C543.708 780.677 544.197 781.876 544.266 783.505L546.362 836.841L573.825 831.417C576.744 830.841 578.42 831.647 578.853 833.837C579.165 835.419 578.949 836.725 578.205 837.757C577.509 838.716 576.432 839.339 574.972 839.628L542.4 846.06Z" fill="white"/>
<path d="M586.154 838.083C584.451 838.419 583.096 838.118 582.089 837.179C581.07 836.18 580.885 834.763 581.534 832.928L604.578 769.604C605.495 767.211 607.11 765.786 609.421 765.33C611.976 764.825 613.864 765.748 615.087 768.098L641.971 820.709C643 822.718 643.215 824.287 642.616 825.416C642.018 826.546 640.988 827.254 639.529 827.543C637.035 828.035 635.147 826.954 633.864 824.301L628.274 812.797L595.611 819.247L590.34 834.318C589.618 836.419 588.222 837.675 586.154 838.083ZM610.433 776.695L598.568 810.7L624.663 805.547L610.616 776.659L610.433 776.695Z" fill="white"/>
<path d="M658.08 823.879C656.438 824.203 655.186 823.945 654.325 823.104C653.463 822.263 652.98 820.936 652.875 819.124L650.788 761.995C650.662 758.797 652.12 756.898 655.161 756.297C658.385 755.66 660.059 757.257 660.184 761.088L662.344 818.108C662.421 821.379 660.999 823.303 658.08 823.879Z" fill="white"/>
<path d="M678.57 819.833C677.353 820.073 676.314 819.931 675.452 819.406C674.578 818.82 674.039 818.01 673.835 816.976C673.619 815.881 673.864 814.727 674.573 813.512L693.235 781.767L673.591 759.578C672.209 758.018 671.75 756.497 672.216 755.015C672.742 753.52 673.948 752.587 675.834 752.215C676.99 751.986 677.926 752.086 678.642 752.513C679.407 752.868 680.311 753.606 681.354 754.727L698.433 774.484L713.526 747.71C714.234 746.496 714.942 745.598 715.649 745.016C716.355 744.434 717.226 744.041 718.26 743.837C719.476 743.596 720.521 743.769 721.395 744.355C722.318 744.868 722.882 745.641 723.086 746.675C723.351 747.697 723.129 748.815 722.421 750.03L704.619 780.372L725.228 803.604C726.598 805.103 727.026 806.63 726.512 808.185C725.997 809.74 724.797 810.704 722.912 811.076C721.756 811.305 720.795 811.241 720.03 810.887C719.314 810.46 718.434 809.685 717.391 808.564L699.276 787.874L683.303 815.959C682.595 817.174 681.888 818.072 681.181 818.654C680.474 819.236 679.604 819.629 678.57 819.833Z" fill="white"/>
<path d="M5.5 422.5V723.5C5.5 797.5 136 797.5 136 723.5V422.5C136 346 5.5 346 5.5 422.5Z" fill="#C31C4A"/>
<path d="M2.5 259C2.5 169 136 169 136 259C136 349 2.5 349 2.5 259Z" fill="#C31C4A"/>
<path fill-rule="evenodd" clip-rule="evenodd" d="M195.5 231.5C195.5 147 330 147 330 231.5L330 509.5C330 617 500 617 500 509.5V323C500 245 633.5 245 633.5 323V509.5C633.5 770.5 195.5 770.5 195.5 509.5V231.5ZM218 210.5C218 203.596 223.596 198 230.5 198H231.5C238.404 198 244 203.596 244 210.5V270.5C244 277.404 238.404 283 231.5 283H230.5C223.596 283 218 277.404 218 270.5V210.5ZM530 309.5C530 302.596 535.596 297 542.5 297H543.5C550.404 297 556 302.596 556 309.5V440.5C556 447.404 550.404 453 543.5 453H542.5C535.596 453 530 447.404 530 440.5V309.5ZM271 451C271 438 293.5 438.5 293.5 451V537C293.5 591 328 622.5 356.5 622.5C369.5 622.5 369.5 645 356.5 645C307.5 645 271 586 271 545V451ZM483.501 654C470 654 467.5 630.129 483.501 630.5C539.5 630.5 571 546.5 571.501 538.5C571.501 526 593 526 593 538.5C593 573.5 545.001 654 483.501 654Z" fill="white"/>
<path d="M269 229.5C269 222.596 274.596 217 281.5 217H282.5C289.404 217 295 222.596 295 229.5V243.5C295 250.404 289.404 256 282.5 256H281.5C274.596 256 269 250.404 269 243.5V229.5Z" fill="#722662"/>
<path d="M218 308.5C218 301.596 223.596 296 230.5 296H231.5C238.404 296 244 301.596 244 308.5V339.5C244 346.404 238.404 352 231.5 352H230.5C223.596 352 218 346.404 218 339.5V308.5Z" fill="#52B8B3"/>
<path d="M218 379.5C218 372.596 223.596 367 230.5 367H231.5C238.404 367 244 372.596 244 379.5V391.5C244 398.404 238.404 404 231.5 404H230.5C223.596 404 218 398.404 218 391.5V379.5Z" fill="#67B566"/>
<path d="M269 285.5C269 278.596 274.596 273 281.5 273H282.5C289.404 273 295 278.596 295 285.5V368.5C295 375.404 289.404 381 282.5 381H281.5C274.596 381 269 375.404 269 368.5V285.5Z" fill="#177988"/>
<path d="M575 388.5C575 381.596 580.596 376 587.5 376H588.5C595.404 376 601 381.596 601 388.5V472.5C601 479.404 595.404 485 588.5 485H587.5C580.596 485 575 479.404 575 472.5V388.5Z" fill="#E05E3C"/>
<path d="M576 335.5C576 328.596 581.596 323 588.5 323H589.5C596.404 323 602 328.596 602 335.5V348.5C602 355.404 596.404 361 589.5 361H588.5C581.596 361 576 355.404 576 348.5V335.5Z" fill="#F1AF42"/>
<path d="M369.737 192.732C362.627 156.176 386.498 120.777 423.054 113.666L996.112 2.20855C1032.67 -4.90162 1068.07 18.9695 1075.18 55.5263C1082.29 92.0831 1058.42 127.482 1021.86 134.592L448.803 246.05C412.246 253.16 376.847 229.289 369.737 192.732Z" fill="#C31C4A"/>
<path d="M856 166.852L721 193.109L721 557.568C721 594.809 751.258 625 788.5 625C825.742 625 856 594.809 856 557.568V166.852Z" fill="#C31C4A"/>
</svg>
