<svg width="87" height="70" viewBox="0 0 87 70" fill="none" xmlns="http://www.w3.org/2000/svg">
<path d="M6 69.5H81C85 69.5 87 66 87 63V14.5C87 12 86 9.5 82 9.5H41C29 9.5 32.5 1.0364e-08 26 0H5C2.5 0 0 1.5 0 5V63C0 66 3 69.5 6 69.5Z" fill="#0B2839"/>
</svg>
