<svg width="52" height="73" viewBox="0 0 52 73" fill="none" xmlns="http://www.w3.org/2000/svg">
<path d="M34 17.5V1.5H6.5C3 1.5 0.5 4.5 0.5 7.5V66C0.5 69.5 4 72.5 7 72.5H44C48 72.5 50.5 69.5 50.5 66V17.5H34Z" fill="#F1AF42"/>
<path d="M37.5 14.5V1.5L50.5 14.5H37.5Z" fill="#F1AF42"/>
<path d="M34 17.5V1.5H6.5C3 1.5 0.5 4.5 0.5 7.5V66C0.5 69.5 4 72.5 7 72.5H44C48 72.5 50.5 69.5 50.5 66V17.5H34Z" stroke="#F1AF42" stroke-width="0.5"/>
<path d="M37.5 14.5V1.5L50.5 14.5H37.5Z" stroke="#F1AF42" stroke-width="0.5"/>
</svg>
