<svg width="42" height="42" viewBox="0 0 42 42" fill="none" xmlns="http://www.w3.org/2000/svg">
<path fill-rule="evenodd" clip-rule="evenodd" d="M21 42C32.5979 42 42 32.598 42 21C42 9.40204 32.5979 0 21 0C9.4021 0 0 9.40204 0 21C0 32.598 9.4021 42 21 42ZM19.5857 8.58582L6.85791 21.3137C6.0769 22.0947 6.0769 23.3611 6.85791 24.1422C7.63892 24.9232 8.90527 24.9232 9.68628 24.1422L19 14.8284V34C19 35.1046 19.8955 36 21 36C22.1045 36 23 35.1046 23 34V14.8284L32.3137 24.1422C33.0947 24.9232 34.3611 24.9232 35.1421 24.1422C35.9231 23.3611 35.9231 22.0948 35.1421 21.3137L22.4143 8.58582C21.6331 7.80475 20.3669 7.80475 19.5857 8.58582Z" fill="#0B2839"/>
</svg>
